{
    "file" : "fragments/pflow-base.json",
    "dl2_configs": [
        {
            "nn_file_path": "BTagging/20220509/gn1/antikt4empflow/network.onnx",
            "engine": "gnn"
        },
        {
            "nn_file_path": "dev/BTagging/20231205/DIPS/antikt4empflow/network.json"
        },
        {
            "nn_file_path": "dev/BTagging/20240516/antikt4empflow/network.json"
        }

    ],
    "variables": {
        "jet" : {
            "ints" : ["n_tracks"],
            "uints": ["jetFoldHash", "jetFoldHash_noHits"]
        },
        "btagging": {
            "floats": [
                "GN120220509_pb",
                "GN120220509_pc",
                "GN120220509_pu",
                "GN2v00_pb",
                "GN2v00_pc",
                "GN2v00_pu",
                "GN2v01_pb",
                "GN2v01_pc",
                "GN2v01_pu",
                "GN2v01_ptau",
                "GN2NoAux_pb",
                "GN2NoAux_pc",
                "GN2NoAux_pu",
                "GN2NoAux_ptau",
                "GN2Lep_pb",
                "GN2Lep_pc",
                "GN2Lep_pu",
                "GN2Lep_ptau",
                "DL1d16052024_pb",
                "DL1d16052024_pc",
                "DL1d16052024_pu"
            ]
        }
    },
    "tracks": [
        {
            "n_to_save": 40,
            "selection": {
                "file": "fragments/r22default-track-cuts.json"
            },
            "sort_order": "d0_significance",
            "btagging_link": "btaggingLink",
            "input_name": "BTagTrackToJetAssociator",
            "output_name": "tracks",
            "variables": {
                "file": "fragments/pflow-track-variables-all.json",
                "chars": [
                    "GN2v01_aux_TrackOrigin",
                    "GN2v01_aux_VertexIndex"
                ]
            },
            "ip_prefix": "btagIp_"
        }
    ],
    "electrons": {
        "file": "fragments/flow_el.json",
        "input_name": "GhostFTagElectrons",
        "selection": {
            "file": "fragments/gnn-electron-cuts.json"
        }
    },
    "ca_blocks": [
        {
            "block": "GNNAuxTaskMapper",
            "btagging_container": "BTagging_AntiKt4EMPFlow",
            "track_container": "InDetTrackParticles",
            "track_links": "GN2v01_TrackLinks",
            "track_aux_tasks": {
                "GN2v01_VertexIndex": "GN2v01_aux_VertexIndex",
                "GN2v01_TrackOrigin": "GN2v01_aux_TrackOrigin"
            }
        },
        {
            "block": "MultifoldTagger",
            "nn_paths": [
                "dev/BTagging/20240408/GN2v01NoAux/antikt4empflow/network_fold0.onnx",
                "dev/BTagging/20240408/GN2v01NoAux/antikt4empflow/network_fold1.onnx",
                "dev/BTagging/20240408/GN2v01NoAux/antikt4empflow/network_fold2.onnx",
                "dev/BTagging/20240408/GN2v01NoAux/antikt4empflow/network_fold3.onnx"
            ]
        },
        {
            "block": "MultifoldTagger",
            "nn_paths": [
                "dev/BTagging/20240627/GN2v01Lep/antikt4empflow/network_fold0.onnx",
                "dev/BTagging/20240627/GN2v01Lep/antikt4empflow/network_fold1.onnx",
                "dev/BTagging/20240627/GN2v01Lep/antikt4empflow/network_fold2.onnx",
                "dev/BTagging/20240627/GN2v01Lep/antikt4empflow/network_fold3.onnx"
            ]
        },
        {
            "block" : "SoftElectronsDecorator",
            "decorate_vars" : true,
            "decorate_truth_vars" : true,
            "link_electrons" : true
        }
    ]
}
