{
    "ca_blocks": [
        {
            "block":"MuonCorrDecorator"
        }
    ],
    "jet_collection": "AntiKt10UFOCSSKSoftDropBeta100Zcut10Jets_muonCorr",
    "calibration": {},
    "selection": {
        "minimum_jet_pt": 200000,
        "maximum_jet_pt": 1500000,
        "maximum_jet_absolute_eta": 2.0,
        "minimum_jet_mass": 50000,
        "maximum_jet_mass": 300000
    },
    "vertex_collection": "PrimaryVertices",
    "truth_vertex_collection": "TruthPrimaryVertices",
    "dl2_configs": [
        {
            "nn_file_path": "BTagging/20240726/GN2Xv02/antikt10ufo/network.onnx",
            "remapping": {
                "BTagTrackToJetAssociator": "GhostTrack"
            },
            "engine": "gnn",
            "where": "jet"
        }
    ],
    "variables": {
        "file": "fragments/jet-substructure-variables.json",
        "jet" : {
            "ints": [
                "jetPtRank",
                "R10TruthLabel_R22v1",
                "GhostCHadronsFinalCount",
                "GhostBHadronsFinalCount",
                "GhostHBosonsCount",
                "GhostWBosonsCount",
                "GhostZBosonsCount",
                "GhostTQuarksFinalCount",
                "GhostTrackCount",
                "n_tracks"
            ],
            "floats": [
                "pt",
                "eta",
                "abs_eta",
                "mass",
                "energy",
                "GhostBHadronsFinalPt",
                "GhostHBosonsPt",
                "GhostWBosonsPt",
                "GhostZBosonsPt",
                "GhostTQuarksFinalPt",
                "GN2Xv01_phbb",
                "GN2Xv01_phcc",
                "GN2Xv01_ptop",
                "GN2Xv01_pqcd",
                "GN2Xv02_phbb",
                "GN2Xv02_phcc",
                "GN2Xv02_ptop",
                "GN2Xv02_pqcd",
                "R10TruthLabel_R22v1_TruthJetMass",
                "R10TruthLabel_R22v1_TruthJetPt"
            ]
        },
        "event": {
            "customs": [
                "mcEventWeight",
                "eventNumber",
                "averageInteractionsPerCrossing",
                "actualInteractionsPerCrossing",
                "nPrimaryVertices"
            ]
        },
        "default_mapping": {
            "file": "fragments/default-mapping.json"
        }
    },
    "tracks": [
        {
            "n_to_save": 100,
            "selection": {
                "file": "fragments/r22loose-track-cuts.json"
            },
            "sort_order": "d0_significance",
            "btagging_link": "",
            "input_name": "GhostTrack",
            "output_name": "tracks",
            "variables": {
                "file": "fragments/pflow-track-variables.json",
                "ints": [
                    "ftagTruthOriginLabel",
                    "ftagTruthVertexIndex",
                    "ftagTruthBarcode",
                    "ftagTruthParentBarcode"
                ],
                "chars": [
                    "leptonID"
                ]
            },
            "ip_prefix": "btagIp_"
        }
    ],
    "flow": [
    {
        "type": "flow",
        "output_name": "flow",
        "n_to_save": 100,
        "accessor": "constituentLinks",
        "variables": {
            "customs": [
                "flow_pt",
                "flow_energy",
                "flow_deta",
                "flow_dphi",
                "flow_dr"
            ]
        },
        "edm_names": {
            "flow_pt": "pt",
            "flow_energy": "energy",
            "flow_deta": "deta",
            "flow_dphi": "dphi",
            "flow_dr": "dr"
        }
    }],
    "truths": [
        {
            "association": {
                "file": "fragments/baseline-truth-kinematics.json",
                "particles": "truth_hadrons"
            },
            "output": {
                "n_to_save": 5,
                "sort_order": "pt"
            },
            "vars" : {
                "file": "fragments/truth-variables.json"
            }
        },
        {
            "merge": [
                "GhostBHadronsFinal",
                "GhostCHadronsFinal"
            ],
            "association_name": "GhostHadronsFinalLabel",
            "output": {
                "n_to_save": 5,
                "sort_order": "pt"
            },
            "vars" : {
                "file": "fragments/truth-variables.json"
            }
        }
    ],
    "decorate": {
        "jet_aug": false,
        "btag_jes": false,
        "soft_muon": false,
        "track_sv_info": false,
        "lepton_decay_label": false
    },
    "btagging_link": ""
}
